%YAML 1.1
%TAG !u! tag:unity3d.com,2011:
--- !u!1001 &7801868645289354773
PrefabInstance:
  m_ObjectHideFlags: 0
  serializedVersion: 2
  m_Modification:
    m_TransformParent: {fileID: 0}
    m_Modifications:
    - target: {fileID: 728706676271417015, guid: 4d436275799fc4a4ca758001538e447b, type: 3}
      propertyPath: m_Sprite
      value: 
      objectReference: {fileID: 21300000, guid: 1f8b437662710434389fe523476f1bcc, type: 3}
    - target: {fileID: 2021540623524684276, guid: 4d436275799fc4a4ca758001538e447b, type: 3}
      propertyPath: type
      value: 4
      objectReference: {fileID: 0}
    - target: {fileID: 2021540623524684276, guid: 4d436275799fc4a4ca758001538e447b, type: 3}
      propertyPath: idleSprite
      value: 
      objectReference: {fileID: 21300000, guid: dcbdf51efef5e5d45a49d471e97f092d, type: 3}
    - target: {fileID: 2021540623524684276, guid: 4d436275799fc4a4ca758001538e447b, type: 3}
      propertyPath: mouseOverSprite
      value: 
      objectReference: {fileID: 21300000, guid: 785038b9f62a7c745a236842e659072e, type: 3}
    - target: {fileID: 4006637368508606014, guid: 4d436275799fc4a4ca758001538e447b, type: 3}
      propertyPath: m_Name
      value: HeavenGemPurple Variant
      objectReference: {fileID: 0}
    - target: {fileID: 5845282680952513183, guid: 4d436275799fc4a4ca758001538e447b, type: 3}
      propertyPath: m_SpriteTilingProperty.oldSize.x
      value: 0.9111111
      objectReference: {fileID: 0}
    - target: {fileID: 5845282680952513183, guid: 4d436275799fc4a4ca758001538e447b, type: 3}
      propertyPath: m_SpriteTilingProperty.oldSize.y
      value: 0.9111111
      objectReference: {fileID: 0}
    - target: {fileID: 5935584583035247021, guid: 4d436275799fc4a4ca758001538e447b, type: 3}
      propertyPath: m_RootOrder
      value: 0
      objectReference: {fileID: 0}
    - target: {fileID: 5935584583035247021, guid: 4d436275799fc4a4ca758001538e447b, type: 3}
      propertyPath: m_LocalPosition.x
      value: 0
      objectReference: {fileID: 0}
    - target: {fileID: 5935584583035247021, guid: 4d436275799fc4a4ca758001538e447b, type: 3}
      propertyPath: m_LocalPosition.y
      value: 0
      objectReference: {fileID: 0}
    - target: {fileID: 5935584583035247021, guid: 4d436275799fc4a4ca758001538e447b, type: 3}
      propertyPath: m_LocalPosition.z
      value: 0
      objectReference: {fileID: 0}
    - target: {fileID: 5935584583035247021, guid: 4d436275799fc4a4ca758001538e447b, type: 3}
      propertyPath: m_LocalRotation.w
      value: 1
      objectReference: {fileID: 0}
    - target: {fileID: 5935584583035247021, guid: 4d436275799fc4a4ca758001538e447b, type: 3}
      propertyPath: m_LocalRotation.x
      value: 0
      objectReference: {fileID: 0}
    - target: {fileID: 5935584583035247021, guid: 4d436275799fc4a4ca758001538e447b, type: 3}
      propertyPath: m_LocalRotation.y
      value: 0
      objectReference: {fileID: 0}
    - target: {fileID: 5935584583035247021, guid: 4d436275799fc4a4ca758001538e447b, type: 3}
      propertyPath: m_LocalRotation.z
      value: 0
      objectReference: {fileID: 0}
    - target: {fileID: 5935584583035247021, guid: 4d436275799fc4a4ca758001538e447b, type: 3}
      propertyPath: m_LocalEulerAnglesHint.x
      value: 0
      objectReference: {fileID: 0}
    - target: {fileID: 5935584583035247021, guid: 4d436275799fc4a4ca758001538e447b, type: 3}
      propertyPath: m_LocalEulerAnglesHint.y
      value: 0
      objectReference: {fileID: 0}
    - target: {fileID: 5935584583035247021, guid: 4d436275799fc4a4ca758001538e447b, type: 3}
      propertyPath: m_LocalEulerAnglesHint.z
      value: 0
      objectReference: {fileID: 0}
    m_RemovedComponents: []
  m_SourcePrefab: {fileID: 100100000, guid: 4d436275799fc4a4ca758001538e447b, type: 3}
