%YAML 1.1
%TAG !u! tag:unity3d.com,2011:
--- !u!74 &7400000
AnimationClip:
  m_ObjectHideFlags: 0
  m_CorrespondingSourceObject: {fileID: 0}
  m_PrefabInstance: {fileID: 0}
  m_PrefabAsset: {fileID: 0}
  m_Name: MatchExplosion Animation
  serializedVersion: 6
  m_Legacy: 0
  m_Compressed: 0
  m_UseHighQualityCurve: 1
  m_RotationCurves: []
  m_CompressedRotationCurves: []
  m_EulerCurves: []
  m_PositionCurves: []
  m_ScaleCurves: []
  m_FloatCurves: []
  m_PPtrCurves:
  - curve:
    - time: 0
      value: {fileID: -3407434259228387807, guid: 75a63cb112776dd43a1ff3954b74b1a2, type: 3}
    - time: 0.033333335
      value: {fileID: 3922321917936945356, guid: 75a63cb112776dd43a1ff3954b74b1a2, type: 3}
    - time: 0.06666667
      value: {fileID: 8339396296026404595, guid: 75a63cb112776dd43a1ff3954b74b1a2, type: 3}
    - time: 0.1
      value: {fileID: 9212780013001361474, guid: 75a63cb112776dd43a1ff3954b74b1a2, type: 3}
    - time: 0.13333334
      value: {fileID: -1865237458804713231, guid: 75a63cb112776dd43a1ff3954b74b1a2, type: 3}
    - time: 0.16666667
      value: {fileID: 7415070404055040924, guid: 75a63cb112776dd43a1ff3954b74b1a2, type: 3}
    - time: 0.2
      value: {fileID: -2462751282882453770, guid: 75a63cb112776dd43a1ff3954b74b1a2, type: 3}
    - time: 0.23333333
      value: {fileID: 811008634242995888, guid: 75a63cb112776dd43a1ff3954b74b1a2, type: 3}
    - time: 0.26666668
      value: {fileID: -7588713225072831996, guid: 75a63cb112776dd43a1ff3954b74b1a2, type: 3}
    - time: 0.3
      value: {fileID: -2889978596462799107, guid: 75a63cb112776dd43a1ff3954b74b1a2, type: 3}
    - time: 0.33333334
      value: {fileID: -5917587638406230280, guid: 75a63cb112776dd43a1ff3954b74b1a2, type: 3}
    - time: 0.36666667
      value: {fileID: 3167729558821002123, guid: 75a63cb112776dd43a1ff3954b74b1a2, type: 3}
    - time: 0.4
      value: {fileID: 9140676836572047561, guid: 75a63cb112776dd43a1ff3954b74b1a2, type: 3}
    - time: 0.43333334
      value: {fileID: -9126545174879009488, guid: 75a63cb112776dd43a1ff3954b74b1a2, type: 3}
    - time: 0.46666667
      value: {fileID: -272903779722363707, guid: 75a63cb112776dd43a1ff3954b74b1a2, type: 3}
    - time: 0.5
      value: {fileID: 7684741442599628621, guid: 75a63cb112776dd43a1ff3954b74b1a2, type: 3}
    - time: 0.53333336
      value: {fileID: -4497952882113415366, guid: 75a63cb112776dd43a1ff3954b74b1a2, type: 3}
    - time: 0.56666666
      value: {fileID: 814558373489332046, guid: 75a63cb112776dd43a1ff3954b74b1a2, type: 3}
    - time: 0.6
      value: {fileID: -1634012272689094943, guid: 75a63cb112776dd43a1ff3954b74b1a2, type: 3}
    - time: 0.6333333
      value: {fileID: 213563235628840591, guid: 75a63cb112776dd43a1ff3954b74b1a2, type: 3}
    - time: 0.6666667
      value: {fileID: 4098258114714156420, guid: 75a63cb112776dd43a1ff3954b74b1a2, type: 3}
    - time: 0.7
      value: {fileID: 239524689045650671, guid: 75a63cb112776dd43a1ff3954b74b1a2, type: 3}
    - time: 0.73333335
      value: {fileID: 7487023373613819926, guid: 75a63cb112776dd43a1ff3954b74b1a2, type: 3}
    - time: 0.76666665
      value: {fileID: 3678779637160870475, guid: 75a63cb112776dd43a1ff3954b74b1a2, type: 3}
    - time: 0.8
      value: {fileID: -8978726145270571708, guid: 75a63cb112776dd43a1ff3954b74b1a2, type: 3}
    - time: 0.8333333
      value: {fileID: 1140568668245772783, guid: 75a63cb112776dd43a1ff3954b74b1a2, type: 3}
    - time: 0.8666667
      value: {fileID: -816416477915368873, guid: 75a63cb112776dd43a1ff3954b74b1a2, type: 3}
    - time: 0.9
      value: {fileID: -6934939467748211976, guid: 75a63cb112776dd43a1ff3954b74b1a2, type: 3}
    - time: 0.93333334
      value: {fileID: -929501848848633757, guid: 75a63cb112776dd43a1ff3954b74b1a2, type: 3}
    - time: 0.96666664
      value: {fileID: 3791213685943423817, guid: 75a63cb112776dd43a1ff3954b74b1a2, type: 3}
    attribute: m_Sprite
    path: 
    classID: 212
    script: {fileID: 0}
  m_SampleRate: 30
  m_WrapMode: 0
  m_Bounds:
    m_Center: {x: 0, y: 0, z: 0}
    m_Extent: {x: 0, y: 0, z: 0}
  m_ClipBindingConstant:
    genericBindings:
    - serializedVersion: 2
      path: 0
      attribute: 0
      script: {fileID: 0}
      typeID: 212
      customType: 23
      isPPtrCurve: 1
    pptrCurveMapping:
    - {fileID: -3407434259228387807, guid: 75a63cb112776dd43a1ff3954b74b1a2, type: 3}
    - {fileID: 3922321917936945356, guid: 75a63cb112776dd43a1ff3954b74b1a2, type: 3}
    - {fileID: 8339396296026404595, guid: 75a63cb112776dd43a1ff3954b74b1a2, type: 3}
    - {fileID: 9212780013001361474, guid: 75a63cb112776dd43a1ff3954b74b1a2, type: 3}
    - {fileID: -1865237458804713231, guid: 75a63cb112776dd43a1ff3954b74b1a2, type: 3}
    - {fileID: 7415070404055040924, guid: 75a63cb112776dd43a1ff3954b74b1a2, type: 3}
    - {fileID: -2462751282882453770, guid: 75a63cb112776dd43a1ff3954b74b1a2, type: 3}
    - {fileID: 811008634242995888, guid: 75a63cb112776dd43a1ff3954b74b1a2, type: 3}
    - {fileID: -7588713225072831996, guid: 75a63cb112776dd43a1ff3954b74b1a2, type: 3}
    - {fileID: -2889978596462799107, guid: 75a63cb112776dd43a1ff3954b74b1a2, type: 3}
    - {fileID: -5917587638406230280, guid: 75a63cb112776dd43a1ff3954b74b1a2, type: 3}
    - {fileID: 3167729558821002123, guid: 75a63cb112776dd43a1ff3954b74b1a2, type: 3}
    - {fileID: 9140676836572047561, guid: 75a63cb112776dd43a1ff3954b74b1a2, type: 3}
    - {fileID: -9126545174879009488, guid: 75a63cb112776dd43a1ff3954b74b1a2, type: 3}
    - {fileID: -272903779722363707, guid: 75a63cb112776dd43a1ff3954b74b1a2, type: 3}
    - {fileID: 7684741442599628621, guid: 75a63cb112776dd43a1ff3954b74b1a2, type: 3}
    - {fileID: -4497952882113415366, guid: 75a63cb112776dd43a1ff3954b74b1a2, type: 3}
    - {fileID: 814558373489332046, guid: 75a63cb112776dd43a1ff3954b74b1a2, type: 3}
    - {fileID: -1634012272689094943, guid: 75a63cb112776dd43a1ff3954b74b1a2, type: 3}
    - {fileID: 213563235628840591, guid: 75a63cb112776dd43a1ff3954b74b1a2, type: 3}
    - {fileID: 4098258114714156420, guid: 75a63cb112776dd43a1ff3954b74b1a2, type: 3}
    - {fileID: 239524689045650671, guid: 75a63cb112776dd43a1ff3954b74b1a2, type: 3}
    - {fileID: 7487023373613819926, guid: 75a63cb112776dd43a1ff3954b74b1a2, type: 3}
    - {fileID: 3678779637160870475, guid: 75a63cb112776dd43a1ff3954b74b1a2, type: 3}
    - {fileID: -8978726145270571708, guid: 75a63cb112776dd43a1ff3954b74b1a2, type: 3}
    - {fileID: 1140568668245772783, guid: 75a63cb112776dd43a1ff3954b74b1a2, type: 3}
    - {fileID: -816416477915368873, guid: 75a63cb112776dd43a1ff3954b74b1a2, type: 3}
    - {fileID: -6934939467748211976, guid: 75a63cb112776dd43a1ff3954b74b1a2, type: 3}
    - {fileID: -929501848848633757, guid: 75a63cb112776dd43a1ff3954b74b1a2, type: 3}
    - {fileID: 3791213685943423817, guid: 75a63cb112776dd43a1ff3954b74b1a2, type: 3}
  m_AnimationClipSettings:
    serializedVersion: 2
    m_AdditiveReferencePoseClip: {fileID: 0}
    m_AdditiveReferencePoseTime: 0
    m_StartTime: 0
    m_StopTime: 1
    m_OrientationOffsetY: 0
    m_Level: 0
    m_CycleOffset: 0
    m_HasAdditiveReferencePose: 0
    m_LoopTime: 0
    m_LoopBlend: 0
    m_LoopBlendOrientation: 0
    m_LoopBlendPositionY: 0
    m_LoopBlendPositionXZ: 0
    m_KeepOriginalOrientation: 0
    m_KeepOriginalPositionY: 1
    m_KeepOriginalPositionXZ: 0
    m_HeightFromFeet: 0
    m_Mirror: 0
  m_EditorCurves: []
  m_EulerEditorCurves: []
  m_HasGenericRootTransform: 0
  m_HasMotionFloatCurves: 0
  m_Events: []
